dump.vcd
$date
	Mon May 08 12:36:10 2023
$end
$version
	Icarus Verilog
$end
$timescale
	1ps
$end
$scope module test $end
$var wire 8 ! led [7:0] $end
$var reg 1 " button1 $end
$var reg 1 # button2 $end
$var reg 1 $ button3 $end
$var reg 1 % button4 $end
$var reg 1 & clock $end
$var reg 1 ' mode $end
$var reg 1 ( reset $end
$scope module uut $end
$var wire 1 ) anyValidVote $end
$var wire 1 " button1 $end
$var wire 1 # button2 $end
$var wire 1 $ button3 $end
$var wire 1 % button4 $end
$var wire 1 & clock $end
$var wire 1 ' mode $end
$var wire 1 ( reset $end
$var wire 1 * valid_vote_4 $end
$var wire 1 + valid_vote_3 $end
$var wire 1 , valid_vote_2 $end
$var wire 1 - valid_vote_1 $end
$var wire 8 . led [7:0] $end
$var wire 8 / cand4_vote_recvd [7:0] $end
$var wire 8 0 cand3_vote_recvd [7:0] $end
$var wire 8 1 cand2_vote_recvd [7:0] $end
$var wire 8 2 cand1_vote_recvd [7:0] $end
$scope module MC $end
$var wire 1 & clock $end
$var wire 1 ' mode $end
$var wire 1 ( reset $end
$var wire 1 ) valid_vote_casted $end
$var wire 8 3 candidate4_vote [7:0] $end
$var wire 1 * candidate4_button_press $end
$var wire 8 4 candidate3_vote [7:0] $end
$var wire 1 + candidate3_button_press $end
$var wire 8 5 candidate2_vote [7:0] $end
$var wire 1 , candidate2_button_press $end
$var wire 8 6 candidate1_vote [7:0] $end
$var wire 1 - candidate1_button_press $end
$var reg 31 7 counter [30:0] $end
$var reg 8 8 leds [7:0] $end
$upscope $end
$scope module VL $end
$var wire 1 & clock $end
$var wire 1 ' mode $end
$var wire 1 ( reset $end
$var wire 1 * cand4_vote_valid $end
$var wire 1 + cand3_vote_valid $end
$var wire 1 , cand2_vote_valid $end
$var wire 1 - cand1_vote_valid $end
$var reg 8 9 cand1_vote_recvd [7:0] $end
$var reg 8 : cand2_vote_recvd [7:0] $end
$var reg 8 ; cand3_vote_recvd [7:0] $end
$var reg 8 < cand4_vote_recvd [7:0] $end
$upscope $end
$scope module bc1 $end
$var wire 1 " button $end
$var wire 1 & clock $end
$var wire 1 ( reset $end
$var reg 31 = counter [30:0] $end
$var reg 1 - valid_vote $end
$upscope $end
$scope module bc2 $end
$var wire 1 # button $end
$var wire 1 & clock $end
$var wire 1 ( reset $end
$var reg 31 > counter [30:0] $end
$var reg 1 , valid_vote $end
$upscope $end
$scope module bc3 $end
$var wire 1 $ button $end
$var wire 1 & clock $end
$var wire 1 ( reset $end
$var reg 31 ? counter [30:0] $end
$var reg 1 + valid_vote $end
$upscope $end
$scope module bc4 $end
$var wire 1 % button $end
$var wire 1 & clock $end
$var wire 1 ( reset $end
$var reg 31 @ counter [30:0] $end
$var reg 1 * valid_vote $end
$upscope $end
$upscope $end
$upscope $end
$enddefinitions $end
$comment Show the parameter values. $end
$dumpall
$end
#0
$dumpvars
bx @
bx ?
bx >
bx =
bx <
bx ;
bx :
bx 9
bx 8
bx 7
bx 6
bx 5
bx 4
bx 3
bx 2
bx 1
bx 0
bx /
bx .
x-
x,
x+
x*
x)
1(
0'
0&
0%
0$
0#
0"
bx !
$end
#5000
0)
b0 =
0-
b0 >
0,
b0 ?
0+
b0 @
0*
b0 /
b0 3
b0 <
b0 0
b0 4
b0 ;
b0 1
b0 5
b0 :
b0 2
b0 6
b0 9
b0 7
b0 !
b0 .
b0 8
1&
#10000
0&
#15000
1&
#20000
0&
#25000
1&
#30000
0&
#35000
1&
#40000
0&
#45000
1&
#50000
0&
#55000
1&
#60000
0&
#65000
1&
#70000
0&
#75000
1&
#80000
0&
#85000
1&
#90000
0&
#95000
1&
#100000
0&
#105000
1&
#110000
0&
#115000
1&
#120000
0&
#125000
1&
#130000
0&
#135000
1&
#140000
0&
#145000
1&
#150000
0&
#155000
1&
#160000
0&
#165000
1&
#170000
0&
#175000
1&
#180000
0&
#185000
1&
#190000
0&
#195000
1&
#200000
0&
0(
#205000
b1 =
1&
1"
#210000
0&
#215000
b0 =
1&
0"
#220000
0&
1"
#225000
b1 =
1&
#230000
0&
#235000
b10 =
1&
#240000
0&
#245000
b11 =
1&
#250000
0&
#255000
b100 =
1&
#260000
0&
#265000
b101 =
1&
#270000
0&
#275000
b110 =
1&
#280000
0&
#285000
b111 =
1&
#290000
0&
#295000
b1000 =
1&
#300000
0&
#305000
b1001 =
1&
#310000
0&
#315000
b1010 =
1&
#320000
0&
#325000
1)
b1011 =
1-
1&
#330000
0&
#335000
0)
b1 7
b1 2
b1 6
b1 9
0-
1&
#340000
0&
#345000
b10 7
b11111111 !
b11111111 .
b11111111 8
1&
#350000
0&
#355000
b11 7
1&
#360000
0&
#365000
b100 7
1&
#370000
0&
#375000
b101 7
1&
#380000
0&
#385000
b110 7
1&
#390000
0&
#395000
b111 7
1&
#400000
0&
#405000
b1000 7
1&
#410000
0&
#415000
b1001 7
1&
#420000
0&
0"
#425000
b0 =
b1010 7
1&
#430000
0&
#435000
b0 7
1&
#440000
0&
#445000
b1 >
b0 !
b0 .
b0 8
1&
1#
#450000
0&
#455000
b10 >
1&
#460000
0&
#465000
b11 >
1&
#470000
0&
#475000
b100 >
1&
#480000
0&
#485000
b101 >
1&
#490000
0&
#495000
b110 >
1&
#500000
0&
#505000
b111 >
1&
#510000
0&
#515000
b1000 >
1&
#520000
0&
#525000
b1001 >
1&
#530000
0&
#535000
b1010 >
1&
#540000
0&
#545000
1)
b1011 >
1,
1&
#550000
0&
#555000
0)
b1 7
b1 1
b1 5
b1 :
0,
1&
#560000
0&
#565000
b10 7
b11111111 !
b11111111 .
b11111111 8
1&
#570000
0&
#575000
b11 7
1&
#580000
0&
#585000
b100 7
1&
#590000
0&
#595000
b101 7
1&
#600000
0&
#605000
b110 7
1&
#610000
0&
#615000
b111 7
1&
#620000
0&
#625000
b1000 7
1&
#630000
0&
#635000
b1001 7
1&
#640000
0&
#645000
b0 >
b1010 7
1&
0#
#650000
0&
#655000
b0 7
1&
#660000
0&
#665000
b0 !
b0 .
b0 8
1&
#670000
0&
1$
1#
#675000
b1 ?
b1 >
1&
#680000
0&
#685000
b10 >
b10 ?
1&
#690000
0&
#695000
b11 ?
b11 >
1&
#700000
0&
#705000
b100 >
b100 ?
1&
#710000
0&
#715000
b101 ?
b101 >
1&
#720000
0&
#725000
b110 >
b110 ?
1&
#730000
0&
#735000
b111 ?
b111 >
1&
#740000
0&
#745000
b1000 >
b1000 ?
1&
#750000
0&
#755000
b1001 ?
b1001 >
1&
#760000
0&
#765000
b1010 >
b1010 ?
1&
#770000
0&
#775000
1)
1+
b1011 ?
1,
b1011 >
1&
#780000
0&
#785000
0)
0,
0+
b10 1
b10 5
b10 :
b1 7
1&
#790000
0&
#795000
b11111111 !
b11111111 .
b11111111 8
b10 7
1&
#800000
0&
#805000
b11 7
1&
#810000
0&
#815000
b100 7
1&
#820000
0&
#825000
b101 7
1&
#830000
0&
#835000
b110 7
1&
#840000
0&
#845000
b111 7
1&
#850000
0&
#855000
b1000 7
1&
#860000
0&
#865000
b1001 7
1&
#870000
0&
0$
0#
#875000
b1010 7
b0 ?
b0 >
1&
#880000
0&
#885000
b0 7
1&
#890000
0&
#895000
b1 >
1&
1#
1'
#900000
0&
#905000
b10 >
1&
#910000
0&
#915000
b11 >
1&
#920000
0&
#925000
b100 >
1&
#930000
0&
#935000
b101 >
1&
#940000
0&
#945000
b110 >
1&
#950000
0&
#955000
b111 >
1&
#960000
0&
#965000
b1000 >
1&
#970000
0&
#975000
b1001 >
1&
#980000
0&
#985000
b1010 >
1&
#990000
0&
#995000
1)
1,
b1011 >
1&
#1000000
0&
#1005000
0)
0,
b1 7
b10 !
b10 .
b10 8
1&
#1010000
0&
#1015000
b10 7
1&
#1020000
0&
#1025000
b11 7
1&
#1030000
0&
#1035000
b100 7
1&
#1040000
0&
#1045000
b101 7
1&
#1050000
0&
#1055000
b110 7
1&
#1060000
0&
#1065000
b111 7
1&
#1070000
0&
#1075000
b1000 7
1&
#1080000
0&
#1085000
b1001 7
1&
#1090000
0&
#1095000
b1010 7
b1 ?
b0 >
1&
1$
0#
#1100000
0&
0$
0'
#1105000
b0 ?
b0 7
b11111111 !
b11111111 .
b11111111 8
1&
#1110000
0&
#1115000
b0 !
b0 .
b0 8
1&
#1120000
0&
1$
#1125000
b1 ?
1&
#1130000
0&
#1135000
b10 ?
1&
#1140000
0&
#1145000
b11 ?
1&
#1150000
0&
#1155000
b100 ?
1&
#1160000
0&
#1165000
b101 ?
1&
#1170000
0&
#1175000
b110 ?
1&
#1180000
0&
#1185000
b111 ?
1&
#1190000
0&
#1195000
b1000 ?
1&
#1200000
0&
#1205000
b1001 ?
1&
#1210000
0&
#1215000
b1010 ?
1&
#1220000
0&
#1225000
1)
b1011 ?
1+
1&
#1230000
0&
#1235000
0)
b1 7
b1 0
b1 4
b1 ;
0+
1&
#1240000
0&
#1245000
b10 7
b11111111 !
b11111111 .
b11111111 8
1&
#1250000
0&
#1255000
b11 7
1&
#1260000
0&
#1265000
b100 7
1&
#1270000
0&
#1275000
b101 7
1&
#1280000
0&
#1285000
b110 7
1&
#1290000
0&
#1295000
b111 7
1&
#1300000
0&
#1305000
b1000 7
1&
#1310000
0&
#1315000
b1001 7
1&
#1320000
0&
0$
#1325000
b0 ?
b1010 7
1&
#1330000
0&
#1335000
b0 7
1&
